tests/input.vcd
$version Generated by VerilatedVcd $end
$date Tue Mar  1 08:23:14 2022
 $end
$timescale   1ps $end

 $scope module TOP $end
  $var wire  1 ' clk $end
  $var wire  1 # io_cond0 $end
  $var wire  1 $ io_cond1 $end
  $var wire  1 % io_flag $end
  $var wire  8 & io_state [7:0] $end
  $var wire  1 ( reset $end
  $scope module MyTopLevel $end
   $var wire  1 ' clk $end
   $var wire  8 ) counter [7:0] $end
   $var wire  1 # io_cond0 $end
   $var wire  1 $ io_cond1 $end
   $var wire  1 % io_flag $end
   $var wire  8 & io_state [7:0] $end
   $var wire  1 ( reset $end
  $upscope $end
 $upscope $end
$enddefinitions $end


#0
0#
1$
1%
b00000000 &
0'
1(
b00000000 )
#160
0(
#170
1'
#175
0'
#180
0$
1'
#185
0'
#190
1'
#195
0'
#200
1$
1'
#205
0'
#210
1#
1'
#215
0'
#220
b00000001 &
1'
b00000001 )
#225
0'
#230
b00000010 &
1'
b00000010 )
#235
0'
#240
0$
0%
b00000011 &
1'
b00000011 )
#245
0'
#250
0#
b00000100 &
1'
b00000100 )
#255
0'
#260
1#
1$
1%
1'
#265
0'
#270
b00000101 &
1'
b00000101 )
#275
0'
#280
b00000110 &
1'
b00000110 )
#285
0'
#290
0#
b00000111 &
1'
b00000111 )
#295
0'
#300
1#
1'
#305
0'
#310
0#
b00001000 &
1'
b00001000 )
#315
0'
#320
1#
0$
0%
1'
#325
0'
#330
b00001001 &
1'
b00001001 )
#335
0'
#340
0#
1$
1%
b00001010 &
1'
b00001010 )
#345
0'
#350
1#
0$
0%
1'
#355
0'
#360
0#
b00001011 &
1'
b00001011 )
#365
0'
#370
1$
1%
1'
#375
0'
#380
0$
0%
1'
#385
0'
#390
1$
1%
1'
#395
0'
#400
1'
#405
0'
#410
1#
1'
#415
0'
#420
b00001100 &
1'
b00001100 )
#425
0'
#430
0$
0%
b00001101 &
1'
b00001101 )
#435
0'
#440
0#
1$
1%
b00001110 &
1'
b00001110 )
#445
0'
#450
1#
0$
0%
1'
#455
0'
#460
1$
1%
b00001111 &
1'
b00001111 )
#465
0'
#470
0$
0%
b00010000 &
1'
b00010000 )
#475
0'
#480
1$
1%
b00010001 &
1'
b00010001 )
#485
0'
#490
b00010010 &
1'
b00010010 )
#495
0'
#500
b00010011 &
1'
b00010011 )
#505
0'
#510
0#
b00010100 &
1'
b00010100 )
#515
0'
#520
1#
1'
#525
0'
#530
b00010101 &
1'
b00010101 )
#535
0'
#540
0#
0$
0%
b00010110 &
1'
b00010110 )
#545
0'
#550
1#
1'
#555
0'
#560
1$
1%
b00010111 &
1'
b00010111 )
#565
0'
#570
0#
0$
0%
b00011000 &
1'
b00011000 )
#575
0'
#580
1'
#585
0'
#590
1#
1'
#595
0'
#600
0#
1$
1%
b00011001 &
1'
b00011001 )
#605
0'
#610
1#
0$
0%
1'
#615
0'
#620
0#
b00011010 &
1'
b00011010 )
#625
0'
#630
1'
#635
0'
#640
1$
1%
1'
#645
0'
#650
0$
0%
1'
#655
0'
#660
1'
#665
0'
#670
1$
1%
1'
#675
0'
#680
0$
0%
1'
#685
0'
#690
1'
#695
0'
#700
1'
#705
0'
#710
1$
1%
1'
#715
0'
#720
1#
0$
0%
1'
#725
0'
#730
b00011011 &
1'
b00011011 )
#735
0'
#740
0#
1$
1%
b00011100 &
1'
b00011100 )
#745
0'
#750
0$
0%
1'
#755
0'
#760
1#
1$
1%
1'
#765
0'
#770
0#
b00011101 &
1'
b00011101 )
#775
0'
#780
1#
1'
#785
0'
#790
b00011110 &
1'
b00011110 )
#795
0'
#800
0#
0$
0%
b00011111 &
1'
b00011111 )
#805
0'
#810
1#
1'
#815
0'
#820
0#
b00100000 &
1'
b00100000 )
#825
0'
#830
1#
1'
#835
0'
#840
0#
b00100001 &
1'
b00100001 )
#845
0'
#850
1$
1%
1'
#855
0'
#860
1#
1'
#865
0'
#870
0$
0%
b00100010 &
1'
b00100010 )
#875
0'
#880
0#
b00100011 &
1'
b00100011 )
#885
0'
#890
1'
#895
0'
#900
1#
1$
1%
1'
#905
0'
#910
b00100100 &
1'
b00100100 )
#915
0'
#920
0#
b00100101 &
1'
b00100101 )
#925
0'
#930
1#
1'
#935
0'
#940
0#
b00100110 &
1'
b00100110 )
#945
0'
#950
1'
#955
0'
#960
0$
0%
1'
#965
0'
#970
1'
#975
0'
#980
1#
1'
#985
0'
#990
0#
b00100111 &
1'
b00100111 )
#995
0'
#1000
1'
#1005
0'
#1010
1#
1$
1%
1'
#1015
0'
#1020
b00101000 &
1'
b00101000 )
#1025
0'
#1030
0#
b00101001 &
1'
b00101001 )
#1035
0'
#1040
1#
1'
#1045
0'
#1050
0#
0$
0%
b00101010 &
1'
b00101010 )
#1055
0'
#1060
1#
1$
1%
1'
#1065
0'
#1070
0$
0%
b00101011 &
1'
b00101011 )
#1075
0'
#1080
0#
b00101100 &
1'
b00101100 )
#1085
0'
#1090
1'
#1095
0'
#1100
1#
1$
1%
1'
#1105
0'
#1110
0$
0%
b00101101 &
1'
b00101101 )
#1115
0'
#1120
1$
1%
b00101110 &
1'
b00101110 )
#1125
0'
#1130
0#
b00101111 &
1'
b00101111 )
#1135
0'
#1140
1'
#1145
0'
#1150
0$
0%
1'
